{
 "SoundBanksInfo": {
  "Platform": "Mac",
  "BasePlatform": "Mac",
  "SchemaVersion": "12",
  "SoundbankVersion": "135",
  "RootPaths": {
   "ProjectRoot": "D:\\SOUND DESIGN\\PRO\\rescuewontcome\\rescuewontcome_WwiseProject\\",
   "SourceFilesRoot": "D:\\SOUND DESIGN\\PRO\\rescuewontcome\\rescuewontcome_WwiseProject\\.cache\\Mac\\",
   "SoundBanksRoot": "D:\\SOUND DESIGN\\PRO\\rescuewontcome\\rescuewontcome_WwiseProject\\GeneratedSoundBanks\\Mac\\",
   "ExternalSourcesInputFile": "",
   "ExternalSourcesOutputRoot": "D:\\SOUND DESIGN\\PRO\\rescuewontcome\\rescuewontcome_WwiseProject\\GeneratedSoundBanks\\Mac"
  },
  "SoundBanks": [
   {
    "Id": "3473287490",
    "GUID": "{CF062942-2942-1942-4242-424242424242}",
    "Language": "SFX",
    "Hash": "1681258335",
    "ObjectPath": "\\SoundBanks\\Default Work Unit\\SB_08BBD791E8714639B8615AD1708F1755",
    "ShortName": "SB_08BBD791E8714639B8615AD1708F1755",
    "Path": "SB_08BBD791E8714639B8615AD1708F1755.bnk",
    "IncludedEvents": [
     {
      "Id": "3666238164",
      "Name": "gun_shot",
      "ObjectPath": "\\Events\\Default Work Unit\\character\\gun_shot",
      "GUID": "{08BBD791-E871-4639-B861-5AD1708F1755}",
      "DurationType": "OneShot",
      "DurationMin": "1.750355",
      "DurationMax": "2.045241",
      "ExcludedMemoryFiles": [
       {
        "Id": "135756890",
        "Language": "SFX",
        "ShortName": "gun_shot-005.wav",
        "Path": "SFX\\gun_shot-005_9759E2EB.wem"
       },
       {
        "Id": "314771704",
        "Language": "SFX",
        "ShortName": "gun_shot-003.wav",
        "Path": "SFX\\gun_shot-003_B9EDF55C.wem"
       },
       {
        "Id": "334288722",
        "Language": "SFX",
        "ShortName": "gun_shot-001.wav",
        "Path": "SFX\\gun_shot-001_107C3A1D.wem"
       },
       {
        "Id": "544135874",
        "Language": "SFX",
        "ShortName": "gun_shot-004.wav",
        "Path": "SFX\\gun_shot-004_99147B1D.wem"
       },
       {
        "Id": "591376903",
        "Language": "SFX",
        "ShortName": "gun_shot-002.wav",
        "Path": "SFX\\gun_shot-002_267B1131.wem"
       }
      ]
     }
    ]
   }
  ]
 }
}