{
 "SoundBanksInfo": {
  "Platform": "Mac",
  "BasePlatform": "Mac",
  "SchemaVersion": "12",
  "SoundbankVersion": "135",
  "RootPaths": {
   "ProjectRoot": "D:\\SOUND DESIGN\\PRO\\rescuewontcome\\rescuewontcome_WwiseProject\\",
   "SourceFilesRoot": "D:\\SOUND DESIGN\\PRO\\rescuewontcome\\rescuewontcome_WwiseProject\\.cache\\Mac\\",
   "SoundBanksRoot": "D:\\SOUND DESIGN\\PRO\\rescuewontcome\\rescuewontcome_WwiseProject\\GeneratedSoundBanks\\Mac\\",
   "ExternalSourcesInputFile": "",
   "ExternalSourcesOutputRoot": "D:\\SOUND DESIGN\\PRO\\rescuewontcome\\rescuewontcome_WwiseProject\\GeneratedSoundBanks\\Mac"
  },
  "SoundBanks": [
   {
    "Id": "853485020",
    "GUID": "{32DF25DC-25DC-15DC-DCDC-DCDCDCDCDCDC}",
    "Language": "SFX",
    "Hash": "2455878586",
    "ObjectPath": "\\SoundBanks\\Default Work Unit\\SB_0449A1BE211243978F2C72FC1176BA8C",
    "ShortName": "SB_0449A1BE211243978F2C72FC1176BA8C",
    "Path": "SB_0449A1BE211243978F2C72FC1176BA8C.bnk",
    "IncludedEvents": [
     {
      "Id": "3924815871",
      "Name": "Play_welcome_todelete",
      "ObjectPath": "\\Events\\Default Work Unit\\Play_welcome_todelete",
      "GUID": "{0449A1BE-2112-4397-8F2C-72FC1176BA8C}",
      "DurationType": "OneShot",
      "DurationMin": "1.126167",
      "DurationMax": "1.126167",
      "ExcludedMemoryFiles": [
       {
        "Id": "673969299",
        "Language": "SFX",
        "ShortName": "welcome.wav",
        "Path": "SFX\\welcome_10C4C929.wem"
       }
      ]
     }
    ]
   }
  ]
 }
}