{
 "SoundBanksInfo": {
  "Platform": "Mac",
  "BasePlatform": "Mac",
  "SchemaVersion": "12",
  "SoundbankVersion": "135",
  "RootPaths": {
   "ProjectRoot": "D:\\SOUND DESIGN\\PRO\\rescuewontcome\\rescuewontcome_WwiseProject\\",
   "SourceFilesRoot": "D:\\SOUND DESIGN\\PRO\\rescuewontcome\\rescuewontcome_WwiseProject\\.cache\\Mac\\",
   "SoundBanksRoot": "D:\\SOUND DESIGN\\PRO\\rescuewontcome\\rescuewontcome_WwiseProject\\GeneratedSoundBanks\\Mac\\",
   "ExternalSourcesInputFile": "",
   "ExternalSourcesOutputRoot": "D:\\SOUND DESIGN\\PRO\\rescuewontcome\\rescuewontcome_WwiseProject\\GeneratedSoundBanks\\Mac"
  },
  "SoundBanks": [
   {
    "Id": "3087708669",
    "GUID": "{B80AB1FD-B1FD-11FD-FDFD-FDFDFDFDFDFD}",
    "Language": "SFX",
    "Hash": "3195672041",
    "ObjectPath": "\\SoundBanks\\Default Work Unit\\SB_5232671B9C554DCD9E523EB1F198A370",
    "ShortName": "SB_5232671B9C554DCD9E523EB1F198A370",
    "Path": "SB_5232671B9C554DCD9E523EB1F198A370.bnk",
    "IncludedEvents": [
     {
      "Id": "872606683",
      "Name": "hover_module_button",
      "ObjectPath": "\\Events\\Default Work Unit\\feedback\\hover_module_button",
      "GUID": "{5232671B-9C55-4DCD-9E52-3EB1F198A370}",
      "DurationType": "OneShot",
      "DurationMin": "1.145297",
      "DurationMax": "1.145297",
      "ExcludedMemoryFiles": [
       {
        "Id": "198025487",
        "Language": "SFX",
        "ShortName": "hover_module_button.wav",
        "Path": "SFX\\hover_module_button_CA333B34.wem"
       }
      ]
     }
    ]
   }
  ]
 }
}