{
 "SoundBanksInfo": {
  "Platform": "Mac",
  "BasePlatform": "Mac",
  "SchemaVersion": "12",
  "SoundbankVersion": "135",
  "RootPaths": {
   "ProjectRoot": "D:\\SOUND DESIGN\\PRO\\rescuewontcome\\rescuewontcome_WwiseProject\\",
   "SourceFilesRoot": "D:\\SOUND DESIGN\\PRO\\rescuewontcome\\rescuewontcome_WwiseProject\\.cache\\Mac\\",
   "SoundBanksRoot": "D:\\SOUND DESIGN\\PRO\\rescuewontcome\\rescuewontcome_WwiseProject\\GeneratedSoundBanks\\Mac\\",
   "ExternalSourcesInputFile": "",
   "ExternalSourcesOutputRoot": "D:\\SOUND DESIGN\\PRO\\rescuewontcome\\rescuewontcome_WwiseProject\\GeneratedSoundBanks\\Mac"
  },
  "SoundBanks": [
   {
    "Id": "3213796778",
    "GUID": "{BF8EA5AA-A5AA-15AA-AAAA-AAAAAAAAAAAA}",
    "Language": "SFX",
    "Hash": "719752433",
    "ObjectPath": "\\SoundBanks\\Default Work Unit\\SB_7E6C2D98DD5B4CE8861F21C39FC1EF39",
    "ShortName": "SB_7E6C2D98DD5B4CE8861F21C39FC1EF39",
    "Path": "SB_7E6C2D98DD5B4CE8861F21C39FC1EF39.bnk",
    "IncludedEvents": [
     {
      "Id": "3675987289",
      "Name": "placing_order_module",
      "ObjectPath": "\\Events\\Default Work Unit\\feedback\\placing_order_module",
      "GUID": "{7E6C2D98-DD5B-4CE8-861F-21C39FC1EF39}",
      "DurationType": "OneShot",
      "DurationMin": "2.505812",
      "DurationMax": "2.505812",
      "ExcludedMemoryFiles": [
       {
        "Id": "703672048",
        "Language": "SFX",
        "ShortName": "placing_order_module.wav",
        "Path": "SFX\\placing_order_module_10C4C929.wem"
       }
      ]
     }
    ]
   }
  ]
 }
}