{
 "SoundBanksInfo": {
  "Platform": "Mac",
  "BasePlatform": "Mac",
  "SchemaVersion": "12",
  "SoundbankVersion": "135",
  "RootPaths": {
   "ProjectRoot": "D:\\SOUND DESIGN\\PRO\\rescuewontcome\\rescuewontcome_WwiseProject\\",
   "SourceFilesRoot": "D:\\SOUND DESIGN\\PRO\\rescuewontcome\\rescuewontcome_WwiseProject\\.cache\\Mac\\",
   "SoundBanksRoot": "D:\\SOUND DESIGN\\PRO\\rescuewontcome\\rescuewontcome_WwiseProject\\GeneratedSoundBanks\\Mac\\",
   "ExternalSourcesInputFile": "",
   "ExternalSourcesOutputRoot": "D:\\SOUND DESIGN\\PRO\\rescuewontcome\\rescuewontcome_WwiseProject\\GeneratedSoundBanks\\Mac"
  },
  "SoundBanks": [
   {
    "Id": "219269880",
    "GUID": "{0D11CAF8-CAF8-1AF8-F8F8-F8F8F8F8F8F8}",
    "Language": "SFX",
    "Hash": "1867827506",
    "ObjectPath": "\\SoundBanks\\Default Work Unit\\SB_A4ED2489F8554087995C6EF523A25FF4",
    "ShortName": "SB_A4ED2489F8554087995C6EF523A25FF4",
    "Path": "SB_A4ED2489F8554087995C6EF523A25FF4.bnk",
    "IncludedEvents": [
     {
      "Id": "1397574368",
      "Name": "Play_music_ingame_test",
      "ObjectPath": "\\Events\\Default Work Unit\\Music\\Play_music_ingame_test",
      "GUID": "{A4ED2489-F855-4087-995C-6EF523A25FF4}",
      "DurationType": "OneShot",
      "DurationMin": "144.000000",
      "DurationMax": "144.000000",
      "ExcludedMemoryFiles": [
       {
        "Id": "126817073",
        "Language": "SFX",
        "ShortName": "bass.wav",
        "Path": "SFX\\bass_D79FB2B7.wem"
       },
       {
        "Id": "336000484",
        "Language": "SFX",
        "ShortName": "lead.wav",
        "Path": "SFX\\lead_D79FB2B7.wem"
       },
       {
        "Id": "348379028",
        "Language": "SFX",
        "ShortName": "drums.wav",
        "Path": "SFX\\drums_D79FB2B7.wem"
       },
       {
        "Id": "1027011857",
        "Language": "SFX",
        "ShortName": "arp nul.wav",
        "Path": "SFX\\arp nul_D79FB2B7.wem"
       }
      ]
     }
    ]
   }
  ]
 }
}