{
 "SoundBanksInfo": {
  "Platform": "Mac",
  "BasePlatform": "Mac",
  "SchemaVersion": "12",
  "SoundbankVersion": "135",
  "RootPaths": {
   "ProjectRoot": "D:\\SOUND DESIGN\\PRO\\rescuewontcome\\rescuewontcome_WwiseProject\\",
   "SourceFilesRoot": "D:\\SOUND DESIGN\\PRO\\rescuewontcome\\rescuewontcome_WwiseProject\\.cache\\Mac\\",
   "SoundBanksRoot": "D:\\SOUND DESIGN\\PRO\\rescuewontcome\\rescuewontcome_WwiseProject\\GeneratedSoundBanks\\Mac\\",
   "ExternalSourcesInputFile": "",
   "ExternalSourcesOutputRoot": "D:\\SOUND DESIGN\\PRO\\rescuewontcome\\rescuewontcome_WwiseProject\\GeneratedSoundBanks\\Mac"
  },
  "SoundBanks": [
   {
    "Id": "3714444761",
    "GUID": "{DD65EDD9-EDD9-1DD9-D9D9-D9D9D9D9D9D9}",
    "Language": "SFX",
    "Hash": "428064196",
    "ObjectPath": "\\SoundBanks\\Default Work Unit\\SB_C671540436FC45D6B6D0EC196C3B70D0",
    "ShortName": "SB_C671540436FC45D6B6D0EC196C3B70D0",
    "Path": "SB_C671540436FC45D6B6D0EC196C3B70D0.bnk",
    "IncludedEvents": [
     {
      "Id": "2874423524",
      "Name": "InGame_Preparation",
      "ObjectPath": "\\Events\\Default Work Unit\\Music\\InGame_Preparation",
      "GUID": "{C6715404-36FC-45D6-B6D0-EC196C3B70D0}",
      "MaxAttenuation": "0.000000",
      "DurationType": "OneShot",
      "DurationMin": "0.000000",
      "DurationMax": "0.000000"
     }
    ]
   }
  ]
 }
}