{
 "PluginInfo": {
  "Project": "rescuewontcome_WwiseProject",
  "Platform": "Windows",
  "BasePlatform": "Windows",
  "Plugins": [
   {
    "Name": "System",
    "ID": "11403271",
    "DLL": "DefaultSink"
   },
   {
    "Name": "No Output",
    "ID": "11862023",
    "DLL": "DefaultSink"
   }
  ]
 }
}