{
 "SoundBanksInfo": {
  "Platform": "Windows",
  "BasePlatform": "Windows",
  "SchemaVersion": "12",
  "SoundbankVersion": "135",
  "RootPaths": {
   "ProjectRoot": "D:\\SOUND DESIGN\\PRO\\rescuewontcome\\rescuewontcome_WwiseProject\\",
   "SourceFilesRoot": "D:\\SOUND DESIGN\\PRO\\rescuewontcome\\rescuewontcome_WwiseProject\\.cache\\Windows\\",
   "SoundBanksRoot": "D:\\SOUND DESIGN\\PRO\\rescuewontcome\\rescuewontcome_WwiseProject\\GeneratedSoundBanks\\Windows\\",
   "ExternalSourcesInputFile": "",
   "ExternalSourcesOutputRoot": "D:\\SOUND DESIGN\\PRO\\rescuewontcome\\rescuewontcome_WwiseProject\\GeneratedSoundBanks\\Windows"
  },
  "SoundBanks": [
   {
    "Id": "2334546387",
    "GUID": "{8B2659D3-59D3-19D3-D3D3-D3D3D3D3D3D3}",
    "Language": "SFX",
    "Hash": "340435785",
    "ObjectPath": "\\SoundBanks\\Default Work Unit\\SB_5AEDA617116D4147ABA53D02CBDB603F",
    "ShortName": "SB_5AEDA617116D4147ABA53D02CBDB603F",
    "Path": "SB_5AEDA617116D4147ABA53D02CBDB603F.bnk",
    "IncludedEvents": [
     {
      "Id": "892796496",
      "Name": "ending_wave",
      "ObjectPath": "\\Events\\Default Work Unit\\feedback\\ending_wave",
      "GUID": "{5AEDA617-116D-4147-ABA5-3D02CBDB603F}",
      "DurationType": "OneShot",
      "DurationMin": "3.342294",
      "DurationMax": "3.342294",
      "ExcludedMemoryFiles": [
       {
        "Id": "762734406",
        "Language": "SFX",
        "ShortName": "ending_wave.wav",
        "Path": "SFX\\ending_wave_372C9170.wem"
       }
      ]
     }
    ]
   }
  ]
 }
}