{
 "SoundBanksInfo": {
  "Platform": "Windows",
  "BasePlatform": "Windows",
  "SchemaVersion": "12",
  "SoundbankVersion": "135",
  "RootPaths": {
   "ProjectRoot": "D:\\SOUND DESIGN\\PRO\\rescuewontcome\\rescuewontcome_WwiseProject\\",
   "SourceFilesRoot": "D:\\SOUND DESIGN\\PRO\\rescuewontcome\\rescuewontcome_WwiseProject\\.cache\\Windows\\",
   "SoundBanksRoot": "D:\\SOUND DESIGN\\PRO\\rescuewontcome\\rescuewontcome_WwiseProject\\GeneratedSoundBanks\\Windows\\",
   "ExternalSourcesInputFile": "",
   "ExternalSourcesOutputRoot": "D:\\SOUND DESIGN\\PRO\\rescuewontcome\\rescuewontcome_WwiseProject\\GeneratedSoundBanks\\Windows"
  },
  "SoundBanks": [
   {
    "Id": "1697533503",
    "GUID": "{652E4E3F-4E3F-1E3F-3F3F-3F3F3F3F3F3F}",
    "Language": "SFX",
    "Hash": "2816626178",
    "ObjectPath": "\\SoundBanks\\Default Work Unit\\SB_F2D55DEA2C9C486EA06DD78B5643980E",
    "ShortName": "SB_F2D55DEA2C9C486EA06DD78B5643980E",
    "Path": "SB_F2D55DEA2C9C486EA06DD78B5643980E.bnk",
    "IncludedEvents": [
     {
      "Id": "2883244301",
      "Name": "jump_landing",
      "ObjectPath": "\\Events\\Default Work Unit\\character\\jump_landing",
      "GUID": "{F2D55DEA-2C9C-486E-A06D-D78B5643980E}",
      "DurationType": "OneShot",
      "DurationMin": "2.067787",
      "DurationMax": "2.067787",
      "ExcludedMemoryFiles": [
       {
        "Id": "602441283",
        "Language": "SFX",
        "ShortName": "jump_landing.wav",
        "Path": "SFX\\jump_landing_D43C3407.wem"
       }
      ]
     }
    ]
   }
  ]
 }
}